%YAML 1.1
%TAG !u! tag:unity3d.com,2011:
--- !u!1001 &100100000
Prefab:
  m_ObjectHideFlags: 1
  serializedVersion: 2
  m_Modification:
    m_TransformParent: {fileID: 0}
    m_Modifications: []
    m_RemovedComponents: []
  m_SourcePrefab: {fileID: 0}
  m_RootGameObject: {fileID: 1589272370661970}
  m_IsPrefabAsset: 1
--- !u!1 &1589272370661970
GameObject:
  m_ObjectHideFlags: 0
  m_CorrespondingSourceObject: {fileID: 0}
  m_PrefabInternal: {fileID: 100100000}
  serializedVersion: 6
  m_Component:
  - component: {fileID: 4054964351212456}
  - component: {fileID: 2569400266258566352}
  m_Layer: 31
  m_Name: Grass Ground
  m_TagString: Untagged
  m_Icon: {fileID: 0}
  m_NavMeshLayer: 0
  m_StaticEditorFlags: 0
  m_IsActive: 1
--- !u!1 &1794714072609910
GameObject:
  m_ObjectHideFlags: 0
  m_CorrespondingSourceObject: {fileID: 0}
  m_PrefabInternal: {fileID: 100100000}
  serializedVersion: 6
  m_Component:
  - component: {fileID: 4624151789592210}
  - component: {fileID: 8195094279959769224}
  - component: {fileID: 3664157345663645604}
  m_Layer: 31
  m_Name: Layer1
  m_TagString: Untagged
  m_Icon: {fileID: 0}
  m_NavMeshLayer: 0
  m_StaticEditorFlags: 0
  m_IsActive: 1
--- !u!4 &4054964351212456
Transform:
  m_ObjectHideFlags: 1
  m_CorrespondingSourceObject: {fileID: 0}
  m_PrefabInternal: {fileID: 100100000}
  m_GameObject: {fileID: 1589272370661970}
  m_LocalRotation: {x: 0, y: 0, z: 0, w: 1}
  m_LocalPosition: {x: 0, y: 0, z: 0}
  m_LocalScale: {x: 1, y: 1, z: 1}
  m_Children:
  - {fileID: 4624151789592210}
  m_Father: {fileID: 0}
  m_RootOrder: 0
  m_LocalEulerAnglesHint: {x: 0, y: 0, z: 0}
--- !u!4 &4624151789592210
Transform:
  m_ObjectHideFlags: 1
  m_CorrespondingSourceObject: {fileID: 0}
  m_PrefabInternal: {fileID: 100100000}
  m_GameObject: {fileID: 1794714072609910}
  m_LocalRotation: {x: -0, y: -0, z: -0, w: 1}
  m_LocalPosition: {x: 0, y: 0, z: 0}
  m_LocalScale: {x: 1, y: 1, z: 1}
  m_Children: []
  m_Father: {fileID: 4054964351212456}
  m_RootOrder: 0
  m_LocalEulerAnglesHint: {x: 0, y: 0, z: 0}
--- !u!114 &114874630795795900
MonoBehaviour:
  m_ObjectHideFlags: 0
  m_CorrespondingSourceObject: {fileID: 0}
  m_PrefabInternal: {fileID: 0}
  m_GameObject: {fileID: 0}
  m_Enabled: 1
  m_EditorHideFlags: 1
  m_Script: {fileID: 12395, guid: 0000000000000000e000000000000000, type: 0}
  m_Name: Palette Settings
  m_EditorClassIdentifier: 
  cellSizing: 0
--- !u!156049354 &2569400266258566352
Grid:
  m_ObjectHideFlags: 1
  m_CorrespondingSourceObject: {fileID: 0}
  m_PrefabInternal: {fileID: 100100000}
  m_GameObject: {fileID: 1589272370661970}
  m_Enabled: 1
  m_CellSize: {x: 1, y: 1, z: 0}
  m_CellGap: {x: 0, y: 0, z: 0}
  m_CellLayout: 0
  m_CellSwizzle: 0
--- !u!483693784 &3664157345663645604
TilemapRenderer:
  m_ObjectHideFlags: 1
  m_CorrespondingSourceObject: {fileID: 0}
  m_PrefabInternal: {fileID: 100100000}
  m_GameObject: {fileID: 1794714072609910}
  m_Enabled: 0
  m_CastShadows: 0
  m_ReceiveShadows: 0
  m_DynamicOccludee: 0
  m_MotionVectors: 1
  m_LightProbeUsage: 0
  m_ReflectionProbeUsage: 0
  m_RenderingLayerMask: 4294967295
  m_Materials:
  - {fileID: 10754, guid: 0000000000000000f000000000000000, type: 0}
  m_StaticBatchInfo:
    firstSubMesh: 0
    subMeshCount: 0
  m_StaticBatchRoot: {fileID: 0}
  m_ProbeAnchor: {fileID: 0}
  m_LightProbeVolumeOverride: {fileID: 0}
  m_ScaleInLightmap: 1
  m_PreserveUVs: 0
  m_IgnoreNormalsForChartDetection: 0
  m_ImportantGI: 0
  m_StitchLightmapSeams: 0
  m_SelectedEditorRenderState: 0
  m_MinimumChartSize: 4
  m_AutoUVMaxDistance: 0.5
  m_AutoUVMaxAngle: 89
  m_LightmapParameters: {fileID: 0}
  m_SortingLayerID: 0
  m_SortingLayer: 0
  m_SortingOrder: 0
  m_ChunkSize: {x: 32, y: 32, z: 32}
  m_ChunkCullingBounds: {x: 0, y: 0, z: 0}
  m_MaxChunkCount: 16
  m_MaxFrameAge: 16
  m_SortOrder: 0
  m_DetectChunkCullingBounds: 0
  m_MaskInteraction: 0
--- !u!1839735485 &8195094279959769224
Tilemap:
  m_ObjectHideFlags: 1
  m_CorrespondingSourceObject: {fileID: 0}
  m_PrefabInternal: {fileID: 100100000}
  m_GameObject: {fileID: 1794714072609910}
  m_Enabled: 1
  m_Tiles:
  - first: {x: -1, y: -5, z: 0}
    second:
      m_TileIndex: 20
      m_TileSpriteIndex: 20
      m_TileMatrixIndex: 0
      m_TileColorIndex: 0
      m_ObjectToInstantiate: {fileID: 0}
      m_TileFlags: 1
      m_ColliderType: 1
  - first: {x: 0, y: -5, z: 0}
    second:
      m_TileIndex: 21
      m_TileSpriteIndex: 21
      m_TileMatrixIndex: 0
      m_TileColorIndex: 0
      m_ObjectToInstantiate: {fileID: 0}
      m_TileFlags: 1
      m_ColliderType: 1
  - first: {x: 1, y: -5, z: 0}
    second:
      m_TileIndex: 22
      m_TileSpriteIndex: 22
      m_TileMatrixIndex: 0
      m_TileColorIndex: 0
      m_ObjectToInstantiate: {fileID: 0}
      m_TileFlags: 1
      m_ColliderType: 1
  - first: {x: -1, y: -4, z: 0}
    second:
      m_TileIndex: 15
      m_TileSpriteIndex: 15
      m_TileMatrixIndex: 0
      m_TileColorIndex: 0
      m_ObjectToInstantiate: {fileID: 0}
      m_TileFlags: 1
      m_ColliderType: 1
  - first: {x: 0, y: -4, z: 0}
    second:
      m_TileIndex: 16
      m_TileSpriteIndex: 16
      m_TileMatrixIndex: 0
      m_TileColorIndex: 0
      m_ObjectToInstantiate: {fileID: 0}
      m_TileFlags: 1
      m_ColliderType: 1
  - first: {x: 1, y: -4, z: 0}
    second:
      m_TileIndex: 17
      m_TileSpriteIndex: 17
      m_TileMatrixIndex: 0
      m_TileColorIndex: 0
      m_ObjectToInstantiate: {fileID: 0}
      m_TileFlags: 1
      m_ColliderType: 1
  - first: {x: 2, y: -4, z: 0}
    second:
      m_TileIndex: 18
      m_TileSpriteIndex: 18
      m_TileMatrixIndex: 0
      m_TileColorIndex: 0
      m_ObjectToInstantiate: {fileID: 0}
      m_TileFlags: 1
      m_ColliderType: 1
  - first: {x: 3, y: -4, z: 0}
    second:
      m_TileIndex: 19
      m_TileSpriteIndex: 19
      m_TileMatrixIndex: 0
      m_TileColorIndex: 0
      m_ObjectToInstantiate: {fileID: 0}
      m_TileFlags: 1
      m_ColliderType: 1
  - first: {x: -1, y: -3, z: 0}
    second:
      m_TileIndex: 10
      m_TileSpriteIndex: 10
      m_TileMatrixIndex: 0
      m_TileColorIndex: 0
      m_ObjectToInstantiate: {fileID: 0}
      m_TileFlags: 1
      m_ColliderType: 1
  - first: {x: 0, y: -3, z: 0}
    second:
      m_TileIndex: 11
      m_TileSpriteIndex: 11
      m_TileMatrixIndex: 0
      m_TileColorIndex: 0
      m_ObjectToInstantiate: {fileID: 0}
      m_TileFlags: 1
      m_ColliderType: 1
  - first: {x: 1, y: -3, z: 0}
    second:
      m_TileIndex: 12
      m_TileSpriteIndex: 12
      m_TileMatrixIndex: 0
      m_TileColorIndex: 0
      m_ObjectToInstantiate: {fileID: 0}
      m_TileFlags: 1
      m_ColliderType: 1
  - first: {x: 2, y: -3, z: 0}
    second:
      m_TileIndex: 13
      m_TileSpriteIndex: 13
      m_TileMatrixIndex: 0
      m_TileColorIndex: 0
      m_ObjectToInstantiate: {fileID: 0}
      m_TileFlags: 1
      m_ColliderType: 1
  - first: {x: 3, y: -3, z: 0}
    second:
      m_TileIndex: 14
      m_TileSpriteIndex: 14
      m_TileMatrixIndex: 0
      m_TileColorIndex: 0
      m_ObjectToInstantiate: {fileID: 0}
      m_TileFlags: 1
      m_ColliderType: 1
  - first: {x: -1, y: -2, z: 0}
    second:
      m_TileIndex: 5
      m_TileSpriteIndex: 5
      m_TileMatrixIndex: 0
      m_TileColorIndex: 0
      m_ObjectToInstantiate: {fileID: 0}
      m_TileFlags: 1
      m_ColliderType: 1
  - first: {x: 0, y: -2, z: 0}
    second:
      m_TileIndex: 6
      m_TileSpriteIndex: 6
      m_TileMatrixIndex: 0
      m_TileColorIndex: 0
      m_ObjectToInstantiate: {fileID: 0}
      m_TileFlags: 1
      m_ColliderType: 1
  - first: {x: 1, y: -2, z: 0}
    second:
      m_TileIndex: 7
      m_TileSpriteIndex: 7
      m_TileMatrixIndex: 0
      m_TileColorIndex: 0
      m_ObjectToInstantiate: {fileID: 0}
      m_TileFlags: 1
      m_ColliderType: 1
  - first: {x: 2, y: -2, z: 0}
    second:
      m_TileIndex: 8
      m_TileSpriteIndex: 8
      m_TileMatrixIndex: 0
      m_TileColorIndex: 0
      m_ObjectToInstantiate: {fileID: 0}
      m_TileFlags: 1
      m_ColliderType: 1
  - first: {x: 3, y: -2, z: 0}
    second:
      m_TileIndex: 9
      m_TileSpriteIndex: 9
      m_TileMatrixIndex: 0
      m_TileColorIndex: 0
      m_ObjectToInstantiate: {fileID: 0}
      m_TileFlags: 1
      m_ColliderType: 1
  - first: {x: -1, y: -1, z: 0}
    second:
      m_TileIndex: 0
      m_TileSpriteIndex: 0
      m_TileMatrixIndex: 0
      m_TileColorIndex: 0
      m_ObjectToInstantiate: {fileID: 0}
      m_TileFlags: 1
      m_ColliderType: 1
  - first: {x: 0, y: -1, z: 0}
    second:
      m_TileIndex: 1
      m_TileSpriteIndex: 1
      m_TileMatrixIndex: 0
      m_TileColorIndex: 0
      m_ObjectToInstantiate: {fileID: 0}
      m_TileFlags: 1
      m_ColliderType: 1
  - first: {x: 1, y: -1, z: 0}
    second:
      m_TileIndex: 2
      m_TileSpriteIndex: 2
      m_TileMatrixIndex: 0
      m_TileColorIndex: 0
      m_ObjectToInstantiate: {fileID: 0}
      m_TileFlags: 1
      m_ColliderType: 1
  - first: {x: 2, y: -1, z: 0}
    second:
      m_TileIndex: 3
      m_TileSpriteIndex: 3
      m_TileMatrixIndex: 0
      m_TileColorIndex: 0
      m_ObjectToInstantiate: {fileID: 0}
      m_TileFlags: 1
      m_ColliderType: 1
  - first: {x: 3, y: -1, z: 0}
    second:
      m_TileIndex: 4
      m_TileSpriteIndex: 4
      m_TileMatrixIndex: 0
      m_TileColorIndex: 0
      m_ObjectToInstantiate: {fileID: 0}
      m_TileFlags: 1
      m_ColliderType: 1
  m_AnimatedTiles: {}
  m_TileAssetArray:
  - m_RefCount: 1
    m_Data: {fileID: 11400000, guid: ff0f1e99411ac49409a55369dfd07b65, type: 2}
  - m_RefCount: 1
    m_Data: {fileID: 11400000, guid: 2a52e1bcb424685439a1da3d1340c41e, type: 2}
  - m_RefCount: 1
    m_Data: {fileID: 11400000, guid: 7f91a0f0d8bbcea4990a032cf03ca70b, type: 2}
  - m_RefCount: 1
    m_Data: {fileID: 11400000, guid: ea4bdfab646733d4a97508674c3777d0, type: 2}
  - m_RefCount: 1
    m_Data: {fileID: 11400000, guid: 5335cec4e7203784aa9ec80528d259b8, type: 2}
  - m_RefCount: 1
    m_Data: {fileID: 11400000, guid: 172be1fe183b6984ca1ee7576d500ecb, type: 2}
  - m_RefCount: 1
    m_Data: {fileID: 11400000, guid: 4e188c60b5f366c4fa5f00fc41a4eaa2, type: 2}
  - m_RefCount: 1
    m_Data: {fileID: 11400000, guid: 434d12a080a0b2f4cb7f141ef8908d3b, type: 2}
  - m_RefCount: 1
    m_Data: {fileID: 11400000, guid: 994978bf1e5ace64e943e22c302b8378, type: 2}
  - m_RefCount: 1
    m_Data: {fileID: 11400000, guid: 0af075cc23a3849478b72105823cf362, type: 2}
  - m_RefCount: 1
    m_Data: {fileID: 11400000, guid: d7e1dfe20bbac62448281dbefd2c2152, type: 2}
  - m_RefCount: 1
    m_Data: {fileID: 11400000, guid: 401314c07ff4dc5429d42832c53fcd6f, type: 2}
  - m_RefCount: 1
    m_Data: {fileID: 11400000, guid: ef556de9779a64840b0e4f8e9aedf6d2, type: 2}
  - m_RefCount: 1
    m_Data: {fileID: 11400000, guid: 9fc44e9fd77eb2941934e4c146a2d7f1, type: 2}
  - m_RefCount: 1
    m_Data: {fileID: 11400000, guid: 59e4ad7c9bdba3a44b51b02c71801e60, type: 2}
  - m_RefCount: 1
    m_Data: {fileID: 11400000, guid: 8bceb75cb9291d94eb90fe7d6fa25e5e, type: 2}
  - m_RefCount: 1
    m_Data: {fileID: 11400000, guid: 9a291fcef4dd23d4a922a132bf0f06a7, type: 2}
  - m_RefCount: 1
    m_Data: {fileID: 11400000, guid: 44dd43a941f4221469466e13ac60d71d, type: 2}
  - m_RefCount: 1
    m_Data: {fileID: 11400000, guid: 6668eac50196ad04fa80c5257c6fa2d6, type: 2}
  - m_RefCount: 1
    m_Data: {fileID: 11400000, guid: e5527fd096c51db4ea9b28b0d707c74b, type: 2}
  - m_RefCount: 1
    m_Data: {fileID: 11400000, guid: 0888f6a5987514f4cbb7202f867b9bd8, type: 2}
  - m_RefCount: 1
    m_Data: {fileID: 11400000, guid: b140799b9a5608f4a8cb8f8377516227, type: 2}
  - m_RefCount: 1
    m_Data: {fileID: 11400000, guid: 8105b1f4a40341248bed183076360f63, type: 2}
  m_TileSpriteArray:
  - m_RefCount: 1
    m_Data: {fileID: 21300000, guid: 9a1dbd66572d13f43911ffa278d5a4c9, type: 3}
  - m_RefCount: 1
    m_Data: {fileID: 21300000, guid: 606b3b9c0285e0e4f8a517ac9b0d5099, type: 3}
  - m_RefCount: 1
    m_Data: {fileID: 21300000, guid: af18fcd4f92ad3b4cbc9aa30a2ad20ef, type: 3}
  - m_RefCount: 1
    m_Data: {fileID: 21300000, guid: c1f252aee26b55f43ab59d04e8ca5687, type: 3}
  - m_RefCount: 1
    m_Data: {fileID: 21300000, guid: da4dd058e55b3db419089e862f504de5, type: 3}
  - m_RefCount: 1
    m_Data: {fileID: 21300000, guid: 26da5d73d53ccd644b77d93fd0681810, type: 3}
  - m_RefCount: 1
    m_Data: {fileID: 21300000, guid: a329b95ad6e0890409a41061acac105a, type: 3}
  - m_RefCount: 1
    m_Data: {fileID: 21300000, guid: 817ca0f5328a79145b074301bd0a3699, type: 3}
  - m_RefCount: 1
    m_Data: {fileID: 21300000, guid: 80f71ba242e23634ca995d2051cbed2d, type: 3}
  - m_RefCount: 1
    m_Data: {fileID: 21300000, guid: e15fa195476af414ba25c5106629f6e9, type: 3}
  - m_RefCount: 1
    m_Data: {fileID: 21300000, guid: 2c7014443e97a954eaf177ca46746c46, type: 3}
  - m_RefCount: 1
    m_Data: {fileID: 21300000, guid: 9a13d38469028e041b62c697d3013c43, type: 3}
  - m_RefCount: 1
    m_Data: {fileID: 21300000, guid: fe84cf7dee62fe14e9ce1f08a0cc3f0d, type: 3}
  - m_RefCount: 1
    m_Data: {fileID: 21300000, guid: c041a330e8a751742840149d39bc0372, type: 3}
  - m_RefCount: 1
    m_Data: {fileID: 21300000, guid: f507ebe811e2fcd4ebaa13156a850a34, type: 3}
  - m_RefCount: 1
    m_Data: {fileID: 21300000, guid: 11ecfc3db9296b44c9811fc5657ed4b7, type: 3}
  - m_RefCount: 1
    m_Data: {fileID: 21300000, guid: c74558e871feb4d4fa0bd1b57d5eac5a, type: 3}
  - m_RefCount: 1
    m_Data: {fileID: 21300000, guid: 5264cb4aa33bede4ab91ee33bbf33e31, type: 3}
  - m_RefCount: 1
    m_Data: {fileID: 21300000, guid: 0d2105f2f5285c04b885124cb4a0f8fa, type: 3}
  - m_RefCount: 1
    m_Data: {fileID: 21300000, guid: e890680b33b91ca4eb3af7d2722b9ff7, type: 3}
  - m_RefCount: 1
    m_Data: {fileID: 21300000, guid: acb8685bdcd014d4191c6f027598e71c, type: 3}
  - m_RefCount: 1
    m_Data: {fileID: 21300000, guid: 7bb93af5468a1944db056a9b960b1c2b, type: 3}
  - m_RefCount: 1
    m_Data: {fileID: 21300000, guid: 87010566091b425429b5b184b55f3c35, type: 3}
  m_TileMatrixArray:
  - m_RefCount: 23
    m_Data:
      e00: 1
      e01: 0
      e02: 0
      e03: 0
      e10: 0
      e11: 1
      e12: 0
      e13: 0
      e20: 0
      e21: 0
      e22: 1
      e23: 0
      e30: 0
      e31: 0
      e32: 0
      e33: 1
  m_TileColorArray:
  - m_RefCount: 23
    m_Data: {r: 1, g: 1, b: 1, a: 1}
  m_AnimationFrameRate: 1
  m_Color: {r: 1, g: 1, b: 1, a: 1}
  m_Origin: {x: -1, y: -5, z: 0}
  m_Size: {x: 5, y: 5, z: 1}
  m_TileAnchor: {x: 0.5, y: 0.5, z: 0}
  m_TileOrientation: 0
  m_TileOrientationMatrix:
    e00: 1
    e01: 0
    e02: 0
    e03: 0
    e10: 0
    e11: 1
    e12: 0
    e13: 0
    e20: 0
    e21: 0
    e22: 1
    e23: 0
    e30: 0
    e31: 0
    e32: 0
    e33: 1
